%YAML 1.1
%TAG !u! tag:unity3d.com,2011:
--- !u!114 &11400000
MonoBehaviour:
  m_ObjectHideFlags: 0
  m_CorrespondingSourceObject: {fileID: 0}
  m_PrefabInternal: {fileID: 0}
  m_GameObject: {fileID: 0}
  m_Enabled: 1
  m_EditorHideFlags: 0
  m_Script: {fileID: 11500000, guid: f6c4bf741f5d95841833f412997e90fa, type: 3}
  m_Name: Machinegun
  m_EditorClassIdentifier: 
  IndefiniteArticle: a
  DisplayName: machinegun
  Description: 
  Icon: {fileID: 2800000, guid: dd0061a2f7a74a04ebeb40c4b85e2557, type: 3}
  Space: 1
  itemTypeHelp: 161
  Unit: {fileID: 11400000, guid: c11d93b063eaa9043b51fa3831599c63, type: 2}
  Capacity: 50
  Reloadable: 1
  RemoveWhenDepleted: 0
  h3: 177
