%YAML 1.1
%TAG !u! tag:unity3d.com,2011:
--- !u!1045 &1
EditorBuildSettings:
  m_ObjectHideFlags: 0
  serializedVersion: 2
  m_Scenes:
  - enabled: 1
    path: Assets/_Scenes/CF2-Demo3 043-newbutton.unity
    guid: 759e5b88a2fdcd140aba62fc0e5c86dc
  m_configObjects: {}
