%YAML 1.1
%TAG !u! tag:unity3d.com,2011:
--- !u!114 &11400000
MonoBehaviour:
  m_ObjectHideFlags: 0
  m_CorrespondingSourceObject: {fileID: 0}
  m_PrefabInternal: {fileID: 0}
  m_GameObject: {fileID: 0}
  m_Enabled: 1
  m_EditorHideFlags: 0
  m_Script: {fileID: 11500000, guid: cd9dde0a70a810340a08feebb42bebc5, type: 3}
  m_Name: ShotgunShell
  m_EditorClassIdentifier: 
  IndefiniteArticle: a
  DisplayName: shotgun shell
  Description: 
  Icon: {fileID: 2800000, guid: 7f16cada731089d46a6d936d91bd8958, type: 3}
  Space: 0
  itemTypeHelp: 161
  unitTypeHelp: 155
